<?xml version="1.0" encoding="UTF-8"?>
<svg width="40px" height="40px" viewBox="0 0 40 40" version="1.1" xmlns="http://www.w3.org/2000/svg" xmlns:xlink="http://www.w3.org/1999/xlink">
    <!-- Generator: Sketch 54.1 (76490) - https://sketchapp.com -->
    <title>Attenzione</title>
    <desc>Created with Sketch.</desc>
    <g id="Attenzione" stroke="none" stroke-width="1" fill="none" fill-rule="evenodd">
        <g id="baseline-report_problem-24px-copy">
            <polygon id="Path" points="0 0 40 0 40 40 0 40"></polygon>
            <path d="M2,35 L38,35 L20,4 L2,35 Z M21.6363636,30.1052632 L18.3636364,30.1052632 L18.3636364,26.8421053 L21.6363636,26.8421053 L21.6363636,30.1052632 Z M21.6363636,23.5789474 L18.3636364,23.5789474 L18.3636364,17.0526316 L21.6363636,17.0526316 L21.6363636,23.5789474 Z" id="Shape" fill="#FA6400" fill-rule="nonzero"></path>
        </g>
    </g>
</svg>